Mortality data from ancient Egypt — egypt • univariateML
…
Pearson, K. (1902). On the change in expectation of life in man during a
period of circa 2000 years. Biometrika, 1(2), 261-264.

Claeskens, G., & Hjort, N. L. (2008). Model selection and model averaging.
Cambridge University Press.

    See also

    The source of the data is
https://feb.kuleuven.be/public/u0043181/modelselection/datasets/egyptlives_data.txt

    Examples

egypt
#> # A tibble: 141 × 2
#>      age sex  
#>    <dbl> <chr>
#>  1  1.5  male 
#>  2  1.83 male 
#>  3  2    male 
#>  4  2    male 
#>  5  3    male 
#>  6  3    male 
#>  7  3    male 
#>  8  4    male 
#>  9  4    male 
#> 10  4    male 
#> # ℹ 131 more rows
…
